…
stations <- rtide::noaa$stations
stations %<>% filter(str_detect(StationName, "Santa Barbara"))
stations
#> # A tibble: 3 × 5
#>   Station Datum Longitude Latitude             StationName
#>     <chr> <dbl>     <dbl>    <dbl>                   <chr>
#> 1 9411340 0.964 -119.6850  34.4083           Santa Barbara
#> 2 TWC0463    NA -119.0333  33.4833    Santa Barbara Island
#> 3 TEC4715    NA  -69.3333  19.2000 Santa Barbara de Samana

datetime <- seq_datetime(from = as.Date("2016-07-13"), minutes = 10L, tz = "PST8PDT")

data <- expand.grid(Station = stations$Station, DateTime = datetime, stringsAsFactors = FALSE) %>% as.tbl()
data
#> # A tibble: 432 × 2
#>    Station            DateTime
#>      <chr>              <dttm>
#> 1  9411340 2016-07-13 00:00:00
#> 2  TWC0463 2016-07-13 00:00:00
#> 3  TEC4715 2016-07-13 00:00:00
#> 4  9411340 2016-07-13 00:10:00
#> 5  TWC0463 2016-07-13 00:10:00
#> 6  TEC4715 2016-07-13 00:10:00
#> 7  9411340 2016-07-13 00:20:00
#> 8  TWC0463 2016-07-13 00:20:00
#> 9  TEC4715 2016-07-13 00:20:00
#> 10 9411340 2016-07-13 00:30:00
#> # ... with 422 more rows
…
